Run, Good, Bad, LDelivered, LRecorded,LAr Corrected, Prescale Corrected, Live Fraction, LAr Fraction, Prescale Fraction
276262, 297, 0, 6.637817, 6.167331, 6.166897, 6.166897, 92.91, 99.99, 100.00
276329, 412, 0, 12.440400, 11.707500, 11.706500, 11.706500, 94.11, 99.99, 100.00
276336, 31, 0, 0.729432, 0.673966, 0.673924, 0.673924, 92.40, 99.99, 100.00
276416, 110, 0, 4.393800, 4.218680, 4.212790, 4.212790, 96.01, 99.86, 100.00
276511, 292, 0, 9.061650, 8.771950, 8.766040, 8.766040, 96.80, 99.93, 100.00
276689, 266, 0, 10.984871, 10.667832, 10.656495, 10.656495, 97.11, 99.89, 100.00
276778, 17, 0, 0.727232, 0.657565, 0.657529, 0.657529, 90.42, 99.99, 100.00
276790, 36, 0, 1.768350, 1.595760, 1.595350, 1.595350, 90.24, 99.97, 100.00
276952, 140, 0, 7.048590, 6.478110, 6.477310, 6.477310, 91.91, 99.99, 100.00
276954, 17, 0, 0.847262, 0.733364, 0.733290, 0.733290, 86.56, 99.99, 100.00
278880, 462, 0, 23.533770, 21.421260, 21.419210, 21.419210, 91.02, 99.99, 100.00
278912, 410, 0, 20.196905, 19.634993, 19.633223, 19.633223, 97.22, 99.99, 100.00
278968, 124, 0, 10.377952, 9.884943, 9.883003, 9.883003, 95.25, 99.98, 100.00
279169, 790, 0, 60.337460, 55.013320, 55.005510, 55.005510, 91.18, 99.99, 100.00
279259, 102, 0, 7.839860, 7.314420, 7.312930, 7.312930, 93.30, 99.98, 100.00
279279, 227, 0, 17.532862, 16.905419, 16.897099, 16.897099, 96.42, 99.95, 100.00
279284, 456, 0, 32.916800, 31.823200, 31.816400, 31.816400, 96.68, 99.98, 100.00
279345, 628, 0, 54.577748, 52.696259, 52.683661, 52.683661, 96.55, 99.98, 100.00
279515, 5, 0, 0.418268, 0.348032, 0.347662, 0.347662, 83.21, 99.89, 100.00
279598, 697, 0, 69.951771, 67.881919, 67.858990, 67.858990, 97.04, 99.97, 100.00
279685, 783, 0, 76.395890, 74.500200, 74.470953, 74.470953, 97.52, 99.96, 100.00
279813, 507, 0, 49.100220, 47.623998, 47.616706, 47.616706, 96.99, 99.98, 100.00
279867, 253, 0, 30.667210, 29.568310, 29.563600, 29.563600, 96.42, 99.98, 100.00
279928, 9, 0, 1.143630, 1.096030, 1.096030, 1.096030, 95.84, 100.00, 100.00
279932, 407, 0, 45.900870, 44.645300, 44.641530, 44.641530, 97.26, 99.99, 100.00
279984, 552, 0, 67.693680, 65.279700, 65.275060, 65.275060, 96.43, 99.99, 100.00
280231, 780, 0, 91.396413, 88.295552, 88.284052, 88.284052, 96.61, 99.99, 100.00
280273, 14, 0, 1.984100, 1.627780, 1.627780, 1.627780, 82.04, 100.00, 100.00
280319, 696, 0, 97.902260, 93.640130, 93.637100, 93.637100, 95.65, 100.00, 100.00
280368, 62, 0, 8.782753, 8.228329, 8.227303, 8.227303, 93.69, 99.99, 100.00
280423, 504, 0, 72.333110, 68.576460, 68.573330, 68.573330, 94.81, 100.00, 100.00
280464, 427, 0, 63.798900, 58.348700, 58.342800, 58.342800, 91.46, 99.99, 100.00
280500, 76, 0, 7.863750, 7.274240, 7.273970, 7.273970, 92.50, 100.00, 100.00
280520, 123, 0, 12.739400, 12.121934, 12.118483, 12.118483, 95.15, 99.97, 100.00
280614, 168, 0, 25.323710, 24.254840, 24.235660, 24.235660, 95.78, 99.92, 100.00
280673, 1061, 0, 155.381000, 149.097600, 149.063100, 149.063100, 95.96, 99.98, 100.00
280753, 316, 0, 48.344066, 45.226317, 45.214597, 45.214597, 93.55, 99.97, 100.00
280853, 62, 0, 8.201190, 7.215950, 7.213880, 7.213880, 87.99, 99.97, 100.00
280862, 955, 0, 137.580173, 131.186593, 131.153913, 131.153913, 95.35, 99.98, 100.00
280950, 960, 0, 134.213050, 125.766186, 125.749586, 125.749586, 93.71, 99.99, 100.00
280977, 209, 0, 36.664788, 34.954341, 34.932670, 34.932670, 95.33, 99.94, 100.00
281070, 74, 0, 13.719070, 12.798750, 12.794580, 12.794580, 93.29, 99.97, 100.00
281074, 287, 0, 48.977790, 46.704310, 46.660110, 46.660110, 95.36, 99.91, 100.00
281075, 7, 0, 1.273050, 1.072500, 1.072130, 1.072130, 84.25, 99.97, 100.00
281317, 135, 0, 25.557600, 24.367890, 24.362880, 24.362880, 95.34, 99.98, 100.00
281385, 573, 0, 98.118328, 93.261948, 93.257128, 93.257128, 95.05, 99.99, 100.00
281411, 830, 0, 157.170853, 146.762057, 146.741527, 146.741527, 93.38, 99.99, 100.00
282625, 141, 0, 11.120100, 10.675800, 10.675200, 10.675200, 96.00, 99.99, 100.00
282631, 178, 0, 29.050570, 26.776710, 26.769170, 26.769170, 92.17, 99.97, 100.00
282712, 495, 0, 99.174530, 93.985350, 93.932390, 93.932390, 94.77, 99.94, 100.00
282784, 33, 0, 2.954410, 2.883260, 2.883260, 2.883260, 97.59, 100.00, 100.00
282992, 571, 0, 111.042120, 106.800670, 106.771360, 106.771360, 96.18, 99.97, 100.00
283074, 283, 0, 58.580580, 55.829470, 55.800830, 55.800830, 95.30, 99.95, 100.00
283155, 146, 0, 30.186800, 28.743000, 28.732700, 28.732700, 95.22, 99.96, 100.00
283270, 65, 0, 14.588300, 13.278500, 13.271300, 13.271300, 91.02, 99.95, 100.00
283429, 1283, 0, 244.877360, 234.724670, 234.567940, 234.567940, 95.85, 99.93, 100.00
283608, 167, 0, 24.343597, 23.814010, 23.808960, 23.808960, 97.82, 99.98, 100.00
283780, 775, 0, 150.495871, 145.158282, 145.089802, 145.089802, 96.45, 99.95, 100.00
284006, 176, 0, 41.646950, 38.924160, 38.918920, 38.918920, 93.46, 99.99, 100.00
284154, 141, 0, 10.318500, 9.998900, 9.998660, 9.998660, 96.90, 100.00, 100.00
284213, 978, 0, 207.348720, 200.003740, 199.990720, 199.990720, 96.46, 99.99, 100.00
284285, 1192, 0, 265.398431, 247.913970, 247.885970, 247.885970, 93.41, 99.99, 100.00
284420, 239, 0, 61.870091, 57.506176, 57.500046, 57.500046, 92.95, 99.99, 100.00
284427, 136, 0, 36.726100, 35.258800, 35.255300, 35.255300, 96.00, 99.99, 100.00
284484, 474, 0, 109.902731, 103.402767, 103.396857, 103.396857, 94.09, 99.99, 100.00
297730, 416, 0, 3.865782, 3.357376, 3.357087, 3.357087, 86.85, 99.99, 100.00
298595, 38, 0, 0.340554, 0.291320, 0.291281, 0.291281, 85.54, 99.99, 100.00
298609, 267, 0, 2.210287, 1.945931, 1.945918, 1.945918, 88.04, 100.00, 100.00
298633, 640, 0, 6.294694, 5.898674, 5.898674, 5.898674, 93.71, 100.00, 100.00
298687, 452, 0, 21.454290, 20.561649, 20.560749, 20.560749, 95.84, 100.00, 100.00
298690, 25, 0, 1.473570, 1.397020, 1.397020, 1.397020, 94.81, 100.00, 100.00
298771, 153, 0, 8.499230, 8.001180, 8.000890, 8.000890, 94.14, 100.00, 100.00
298773, 150, 0, 8.782230, 7.757190, 7.757040, 7.757040, 88.33, 100.00, 100.00
298862, 474, 0, 25.326646, 23.625335, 23.625135, 23.625135, 93.28, 100.00, 100.00
298967, 560, 0, 55.433900, 53.390200, 53.387100, 53.387100, 96.31, 99.99, 100.00
299055, 538, 0, 51.045112, 49.719663, 49.718763, 49.718763, 97.40, 100.00, 100.00
299144, 362, 0, 30.521200, 29.741500, 29.741000, 29.741000, 97.45, 100.00, 100.00
299147, 248, 0, 23.880659, 23.198754, 23.198154, 23.198154, 97.14, 100.00, 100.00
299184, 696, 0, 94.568754, 91.231877, 91.226617, 91.226617, 96.47, 99.99, 100.00
299241, 107, 0, 12.481400, 12.203800, 12.203400, 12.203400, 97.78, 100.00, 100.00
299243, 115, 0, 12.530100, 12.256700, 12.256700, 12.256700, 97.82, 100.00, 100.00
299288, 326, 0, 34.277135, 33.753962, 33.752932, 33.752932, 98.47, 100.00, 100.00
299343, 91, 0, 15.157187, 14.171921, 14.171001, 14.171001, 93.50, 99.99, 100.00
299584, 1973, 0, 227.237396, 220.754009, 220.742409, 220.742409, 97.15, 99.99, 100.00
300279, 58, 0, 5.895611, 5.225814, 5.225264, 5.225264, 88.64, 99.99, 100.00
300345, 29, 0, 5.330255, 4.806073, 4.805673, 4.805673, 90.17, 99.99, 100.00
300415, 447, 0, 93.583942, 88.535152, 88.525791, 88.525791, 94.61, 99.99, 100.00
300418, 27, 0, 6.387901, 5.496335, 5.496335, 5.496335, 86.04, 100.00, 100.00
300487, 494, 0, 124.270535, 119.644052, 119.630381, 119.630381, 96.28, 99.99, 100.00
300540, 696, 0, 183.876636, 174.786099, 174.751741, 174.751741, 95.06, 99.98, 100.00
300571, 482, 0, 151.467485, 140.767717, 140.645943, 140.645943, 92.94, 99.91, 100.00
300600, 158, 0, 56.106400, 48.356140, 48.064920, 48.064920, 86.19, 99.40, 100.00
300655, 671, 0, 238.948510, 228.058300, 228.040140, 228.040140, 95.44, 99.99, 100.00
300687, 1069, 0, 338.714486, 321.766868, 321.726231, 321.726231, 95.00, 99.99, 100.00
300784, 22, 0, 7.635162, 7.123285, 7.123225, 7.123225, 93.30, 100.00, 100.00
300800, 801, 0, 289.670616, 273.220152, 273.204864, 273.204864, 94.32, 99.99, 100.00
300863, 1043, 0, 344.383311, 325.496447, 325.486788, 325.486788, 94.52, 100.00, 100.00
300908, 646, 0, 228.246660, 211.974980, 211.961830, 211.961830, 92.87, 99.99, 100.00
301912, 49, 0, 6.685500, 6.245710, 6.245620, 6.245620, 93.42, 100.00, 100.00
301918, 165, 0, 19.916700, 19.338800, 19.338700, 19.338700, 97.10, 100.00, 100.00
301932, 1156, 2, 370.773857, 352.168996, 352.133151, 351.697441, 94.98, 99.99, 100.12
301973, 1640, 0, 482.356400, 461.979046, 461.839271, 461.839271, 95.78, 99.97, 100.00
302053, 1100, 0, 398.814902, 376.622709, 376.368970, 376.368970, 94.44, 99.93, 100.00
302137, 529, 0, 206.129650, 196.719220, 196.711180, 196.711180, 95.43, 100.00, 100.00
302265, 273, 0, 109.652381, 101.622707, 101.618607, 101.618607, 92.68, 100.00, 100.00
302269, 175, 0, 58.598820, 56.258260, 56.257300, 56.257300, 96.01, 100.00, 100.00
302300, 1470, 0, 402.589255, 385.534147, 385.524447, 385.524447, 95.76, 100.00, 100.00
302347, 534, 0, 206.433797, 194.710892, 194.704642, 194.704642, 94.32, 100.00, 100.00
302380, 250, 0, 110.124030, 104.365560, 104.314980, 104.314980, 94.77, 99.95, 100.00
302391, 303, 0, 132.429490, 126.296730, 126.254960, 126.254960, 95.37, 99.97, 100.00
302393, 1745, 0, 525.952342, 503.063139, 502.908095, 502.908095, 95.65, 99.97, 100.00
302737, 190, 0, 83.745898, 79.364806, 79.315838, 79.315838, 94.77, 99.94, 100.00
302829, 1482, 0, 515.272963, 497.121496, 496.876979, 496.876979, 96.48, 99.95, 100.00
302831, 70, 0, 15.987760, 15.802190, 15.796940, 15.796940, 98.84, 99.97, 100.00
302872, 2283, 0, 673.806977, 641.423821, 641.145193, 641.145193, 95.19, 99.96, 100.00
302919, 154, 0, 66.845820, 61.493740, 61.486930, 61.486930, 91.99, 99.99, 100.00
302925, 355, 0, 133.195001, 127.524734, 127.474365, 127.474365, 95.74, 99.96, 100.00
302956, 920, 0, 353.816397, 334.027010, 333.694310, 333.694310, 94.41, 99.90, 100.00
303007, 34, 0, 17.514570, 15.620990, 15.609210, 15.609210, 89.19, 99.92, 100.00
303059, 191, 0, 101.875000, 99.799300, 99.760900, 99.760900, 97.96, 99.96, 100.00
303079, 231, 0, 112.173378, 101.083889, 101.040125, 101.040125, 90.11, 99.96, 100.00
303201, 215, 0, 112.568750, 91.513080, 91.454860, 91.454860, 81.30, 99.94, 100.00
303208, 1535, 0, 559.933643, 531.567155, 531.114576, 531.114576, 94.93, 99.91, 100.00
303264, 79, 0, 37.232100, 30.137810, 30.086470, 30.086470, 80.95, 99.83, 100.00
303266, 707, 0, 289.079127, 269.217829, 269.121857, 269.121857, 93.13, 99.96, 100.00
303291, 401, 0, 178.331010, 168.805830, 168.660660, 168.660660, 94.66, 99.91, 100.00
303304, 1409, 0, 501.130460, 476.217934, 475.796043, 475.796043, 95.03, 99.91, 100.00
303338, 1557, 0, 543.727553, 515.978206, 515.380458, 515.380458, 94.90, 99.88, 100.00
303421, 1374, 0, 512.430139, 481.932045, 481.088894, 481.088894, 94.05, 99.83, 100.00
303499, 1317, 0, 441.977760, 421.373060, 421.167270, 421.167270, 95.34, 99.95, 100.00
303560, 831, 0, 342.635970, 324.770033, 324.621623, 324.621623, 94.79, 99.95, 100.00
303638, 1349, 0, 478.889770, 462.527590, 462.309130, 462.309130, 96.58, 99.95, 100.00
303832, 400, 0, 96.714482, 94.282688, 94.258388, 94.258388, 97.49, 99.97, 100.00
303846, 1548, 0, 520.558846, 495.302601, 490.742189, 490.742189, 95.15, 99.08, 100.00
303892, 1400, 0, 478.607737, 460.200831, 459.882658, 459.882658, 96.15, 99.93, 100.00
