{0.10: {0.3: {'exp': 0.13606975840513597, 'obs': 0.10000450599421246},
        0.4: {'exp': 0.11093749999999998, 'obs': 0.10458992506244795},
        0.5: {'exp': 0.08693030407740152, 'obs': 0.09755262771040057},
        0.6: {'exp': 0.07792012491325466, 'obs': 0.08295569650839675},
        0.7: {'exp': 0.05954685748902014, 'obs': 0.045798620602379145},
        0.8: {'exp': 0.04661332687963858, 'obs': 0.05342750633369525},
        0.9: {'exp': 0.04741325987841944, 'obs': 0.04665887236250431},
        1.0: {'exp': 0.03548694303440495, 'obs': 0.02692653165201885}},
 0.20: {0.3: {'exp': 0.15154115828859605, 'obs': 0.1153462722059029},
        0.4: {'exp': 0.12263269020749908, 'obs': 0.1135096774193548},
        0.5: {'exp': 0.0987485504445303, 'obs': 0.10636918900576857},
        0.6: {'exp': 0.08203401407638167, 'obs': 0.09354338971349668},
        0.7: {'exp': 0.06674993203443587, 'obs': 0.05101162790697672},
        0.8: {'exp': 0.054430211202938464, 'obs': 0.06502065217391302},
        0.9: {'exp': 0.05056186252771619, 'obs': 0.05297136},
        1.0: {'exp': 0.0395922727862051, 'obs': 0.034398090277777765}},
 0.30: {0.3: {'exp': 0.17315227483751156, 'obs': 0.1374245747893816},
        0.4: {'exp': 0.14357672955974837, 'obs': 0.124049199817101},
        0.5: {'exp': 0.1145779672486128, 'obs': 0.12065093913456965},
        0.6: {'exp': 0.10553665158371041, 'obs': 0.11884578768417076},
        0.7: {'exp': 0.07639733581164805, 'obs': 0.05812272606735613},
        0.8: {'exp': 0.06454056879966541, 'obs': 0.0769518640752964},
        0.9: {'exp': 0.05679787288243534, 'obs': 0.06464291378869275},
        1.0: {'exp': 0.04550225385527875, 'obs': 0.04071068682047201}},
 0.40: {0.3: {'exp': 0.1935107611548556, 'obs': 0.167996353928299},
        0.4: {'exp': 0.15729270833333334, 'obs': 0.13538648648648646},
        0.5: {'exp': 0.13518414451261077, 'obs': 0.1485029263645025},
        0.6: {'exp': 0.10034931935911334, 'obs': 0.11950904403014674},
        0.7: {'exp': 0.08528053553038104, 'obs': 0.06925332244008713},
        0.8: {'exp': 0.06855787965616043, 'obs': 0.09049186172128196},
        0.9: {'exp': 0.0671329908675799, 'obs': 0.07250973338975879},
        1.0: {'exp': 0.05617053763440859, 'obs': 0.06195641025641024}},
 0.50: {0.3: {'exp': 0.21797920087575257, 'obs': 0.21551440329218102},
        0.4: {'exp': 0.1711612086695143, 'obs': 0.148924308588064},
        0.5: {'exp': 0.13113977212506622, 'obs': 0.14084694422204427},
        0.6: {'exp': 0.11364059059059058, 'obs': 0.12807603589337554},
        0.7: {'exp': 0.10060299267749119, 'obs': 0.07864963566223744},
        0.8: {'exp': 0.07953055355859093, 'obs': 0.09354122137404579},
        0.9: {'exp': 0.07573585538576218, 'obs': 0.09265201517306779},
        1.0: {'exp': 0.06762049639711769, 'obs': 0.07725157750342934}}}
